Introduction to aquamapsdata • aquamapsdata
…
# within in this area, the following species are listed appear, each in n cells
am_species_in_csc(csc)

## # A tibble: 1 x 2
##   SpeciesID     n
##   <chr>     <int>
## 1 Fis-29757    86

# in each cell location, the following number of distinct species are likely
# a measure of species diversity or "richness"
am_species_per_csc(csc, min_prob = 0.8)

## # A tibble: 53 x 2
##    CsquareCode n_species
##    <chr>           <int>
##  1 3010:475:2          1
##  2 3011:486:4          1
##  3 3011:487:3          1
##  4 3011:487:4          1
##  5 3011:488:3          1
##  6 3011:488:4          1
##  7 3011:489:3          1
##  8 3011:489:4          1
##  9 3011:496:2          1
## 10 3011:497:1          1
## # … with 43 more rows
…
